simulation/qsim/Arithmetic_LU.msim.vcd
$comment
	File created using the following command:
		vcd file Arithmetic_LU.msim.vcd -direction
$end
$date
	Fri Dec 06 10:41:13 2024
$end
$version
	ModelSim Version 10.1d
$end
$timescale
	1ps
$end
$scope module Arithmetic_LU_vlg_vec_tst $end
$var reg 8 ! iA [7:0] $end
$var reg 8 " iB [7:0] $end
$var reg 1 # iClk $end
$var reg 1 $ iLinshiftleft $end
$var reg 1 % iLinshiftright $end
$var reg 4 & iOpCode [3:0] $end
$var reg 1 ' iReset $end
$var wire 1 ( Equal [7] $end
$var wire 1 ) Equal [6] $end
$var wire 1 * Equal [5] $end
$var wire 1 + Equal [4] $end
$var wire 1 , Equal [3] $end
$var wire 1 - Equal [2] $end
$var wire 1 . Equal [1] $end
$var wire 1 / Equal [0] $end
$var wire 1 0 SubNeg [7] $end
$var wire 1 1 SubNeg [6] $end
$var wire 1 2 SubNeg [5] $end
$var wire 1 3 SubNeg [4] $end
$var wire 1 4 SubNeg [3] $end
$var wire 1 5 SubNeg [2] $end
$var wire 1 6 SubNeg [1] $end
$var wire 1 7 SubNeg [0] $end
$var wire 1 8 SubPos [7] $end
$var wire 1 9 SubPos [6] $end
$var wire 1 : SubPos [5] $end
$var wire 1 ; SubPos [4] $end
$var wire 1 < SubPos [3] $end
$var wire 1 = SubPos [2] $end
$var wire 1 > SubPos [1] $end
$var wire 1 ? SubPos [0] $end
$var wire 1 @ oAccu [7] $end
$var wire 1 A oAccu [6] $end
$var wire 1 B oAccu [5] $end
$var wire 1 C oAccu [4] $end
$var wire 1 D oAccu [3] $end
$var wire 1 E oAccu [2] $end
$var wire 1 F oAccu [1] $end
$var wire 1 G oAccu [0] $end
$var wire 1 H oCarryFlag $end
$var wire 1 I oDiff [7] $end
$var wire 1 J oDiff [6] $end
$var wire 1 K oDiff [5] $end
$var wire 1 L oDiff [4] $end
$var wire 1 M oDiff [3] $end
$var wire 1 N oDiff [2] $end
$var wire 1 O oDiff [1] $end
$var wire 1 P oDiff [0] $end
$var wire 1 Q oQ_leftA [7] $end
$var wire 1 R oQ_leftA [6] $end
$var wire 1 S oQ_leftA [5] $end
$var wire 1 T oQ_leftA [4] $end
$var wire 1 U oQ_leftA [3] $end
$var wire 1 V oQ_leftA [2] $end
$var wire 1 W oQ_leftA [1] $end
$var wire 1 X oQ_leftA [0] $end
$var wire 1 Y oQ_leftB [7] $end
$var wire 1 Z oQ_leftB [6] $end
$var wire 1 [ oQ_leftB [5] $end
$var wire 1 \ oQ_leftB [4] $end
$var wire 1 ] oQ_leftB [3] $end
$var wire 1 ^ oQ_leftB [2] $end
$var wire 1 _ oQ_leftB [1] $end
$var wire 1 ` oQ_leftB [0] $end
$var wire 1 a oQ_rightA [7] $end
$var wire 1 b oQ_rightA [6] $end
$var wire 1 c oQ_rightA [5] $end
$var wire 1 d oQ_rightA [4] $end
$var wire 1 e oQ_rightA [3] $end
$var wire 1 f oQ_rightA [2] $end
$var wire 1 g oQ_rightA [1] $end
$var wire 1 h oQ_rightA [0] $end
$var wire 1 i oQ_rightB [7] $end
$var wire 1 j oQ_rightB [6] $end
$var wire 1 k oQ_rightB [5] $end
$var wire 1 l oQ_rightB [4] $end
$var wire 1 m oQ_rightB [3] $end
$var wire 1 n oQ_rightB [2] $end
$var wire 1 o oQ_rightB [1] $end
$var wire 1 p oQ_rightB [0] $end
$var wire 1 q oZeroFlag $end
$var wire 1 r sampler $end
$scope module i1 $end
$var wire 1 s gnd $end
$var wire 1 t vcc $end
$var wire 1 u unknown $end
$var tri1 1 v devclrn $end
$var tri1 1 w devpor $end
$var tri1 1 x devoe $end
$var wire 1 y m8BitADDwCarry|Full_Add_1|oCarry~0_combout $end
$var wire 1 z Mux6~0_combout $end
$var wire 1 { Mux6~1_combout $end
$var wire 1 | Mux5~0_combout $end
$var wire 1 } m8BitSUB|FullSubtractor_1|oBorrow~combout $end
$var wire 1 ~ oAccu~0_combout $end
$var wire 1 !! m8BitADDwCarry|Full_Add_4|HalfAdder_1|oSum~combout $end
$var wire 1 "! Mux4~0_combout $end
$var wire 1 #! Mux2~1_combout $end
$var wire 1 $! m8BitSUB|FullSubtractor_4|oBorrow~combout $end
$var wire 1 %! Mux8~0_combout $end
$var wire 1 &! oQ_leftA[0]~output_o $end
$var wire 1 '! oQ_leftA[1]~output_o $end
$var wire 1 (! oQ_leftA[2]~output_o $end
$var wire 1 )! oQ_leftA[3]~output_o $end
$var wire 1 *! oQ_leftA[4]~output_o $end
$var wire 1 +! oQ_leftA[5]~output_o $end
$var wire 1 ,! oQ_leftA[6]~output_o $end
$var wire 1 -! oQ_leftA[7]~output_o $end
$var wire 1 .! oQ_leftB[0]~output_o $end
$var wire 1 /! oQ_leftB[1]~output_o $end
$var wire 1 0! oQ_leftB[2]~output_o $end
$var wire 1 1! oQ_leftB[3]~output_o $end
$var wire 1 2! oQ_leftB[4]~output_o $end
$var wire 1 3! oQ_leftB[5]~output_o $end
$var wire 1 4! oQ_leftB[6]~output_o $end
$var wire 1 5! oQ_leftB[7]~output_o $end
$var wire 1 6! oQ_rightA[0]~output_o $end
$var wire 1 7! oQ_rightA[1]~output_o $end
$var wire 1 8! oQ_rightA[2]~output_o $end
$var wire 1 9! oQ_rightA[3]~output_o $end
$var wire 1 :! oQ_rightA[4]~output_o $end
$var wire 1 ;! oQ_rightA[5]~output_o $end
$var wire 1 <! oQ_rightA[6]~output_o $end
$var wire 1 =! oQ_rightA[7]~output_o $end
$var wire 1 >! oQ_rightB[0]~output_o $end
$var wire 1 ?! oQ_rightB[1]~output_o $end
$var wire 1 @! oQ_rightB[2]~output_o $end
$var wire 1 A! oQ_rightB[3]~output_o $end
$var wire 1 B! oQ_rightB[4]~output_o $end
$var wire 1 C! oQ_rightB[5]~output_o $end
$var wire 1 D! oQ_rightB[6]~output_o $end
$var wire 1 E! oQ_rightB[7]~output_o $end
$var wire 1 F! oAccu[0]~output_o $end
$var wire 1 G! oAccu[1]~output_o $end
$var wire 1 H! oAccu[2]~output_o $end
$var wire 1 I! oAccu[3]~output_o $end
$var wire 1 J! oAccu[4]~output_o $end
$var wire 1 K! oAccu[5]~output_o $end
$var wire 1 L! oAccu[6]~output_o $end
$var wire 1 M! oAccu[7]~output_o $end
$var wire 1 N! SubPos[0]~output_o $end
$var wire 1 O! SubPos[1]~output_o $end
$var wire 1 P! SubPos[2]~output_o $end
$var wire 1 Q! SubPos[3]~output_o $end
$var wire 1 R! SubPos[4]~output_o $end
$var wire 1 S! SubPos[5]~output_o $end
$var wire 1 T! SubPos[6]~output_o $end
$var wire 1 U! SubPos[7]~output_o $end
$var wire 1 V! SubNeg[0]~output_o $end
$var wire 1 W! SubNeg[1]~output_o $end
$var wire 1 X! SubNeg[2]~output_o $end
$var wire 1 Y! SubNeg[3]~output_o $end
$var wire 1 Z! SubNeg[4]~output_o $end
$var wire 1 [! SubNeg[5]~output_o $end
$var wire 1 \! SubNeg[6]~output_o $end
$var wire 1 ]! SubNeg[7]~output_o $end
$var wire 1 ^! Equal[0]~output_o $end
$var wire 1 _! Equal[1]~output_o $end
$var wire 1 `! Equal[2]~output_o $end
$var wire 1 a! Equal[3]~output_o $end
$var wire 1 b! Equal[4]~output_o $end
$var wire 1 c! Equal[5]~output_o $end
$var wire 1 d! Equal[6]~output_o $end
$var wire 1 e! Equal[7]~output_o $end
$var wire 1 f! oDiff[0]~output_o $end
$var wire 1 g! oDiff[1]~output_o $end
$var wire 1 h! oDiff[2]~output_o $end
$var wire 1 i! oDiff[3]~output_o $end
$var wire 1 j! oDiff[4]~output_o $end
$var wire 1 k! oDiff[5]~output_o $end
$var wire 1 l! oDiff[6]~output_o $end
$var wire 1 m! oDiff[7]~output_o $end
$var wire 1 n! oCarryFlag~output_o $end
$var wire 1 o! oZeroFlag~output_o $end
$var wire 1 p! iClk~input_o $end
$var wire 1 q! iClk~inputclkctrl_outclk $end
$var wire 1 r! iLinshiftleft~input_o $end
$var wire 1 s! iA[0]~input_o $end
$var wire 1 t! ShiftLeft_A|outQ~0_combout $end
$var wire 1 u! iReset~input_o $end
$var wire 1 v! iReset~inputclkctrl_outclk $end
$var wire 1 w! iA[1]~input_o $end
$var wire 1 x! ShiftLeft_A|outQ~1_combout $end
$var wire 1 y! iA[2]~input_o $end
$var wire 1 z! ShiftLeft_A|outQ~2_combout $end
$var wire 1 {! iA[3]~input_o $end
$var wire 1 |! ShiftLeft_A|outQ~3_combout $end
$var wire 1 }! ShiftLeft_A|outQ~4_combout $end
$var wire 1 ~! iA[5]~input_o $end
$var wire 1 !" ShiftLeft_A|outQ~5_combout $end
$var wire 1 "" iA[6]~input_o $end
$var wire 1 #" ShiftLeft_A|outQ~6_combout $end
$var wire 1 $" iA[7]~input_o $end
$var wire 1 %" ShiftLeft_A|outQ~7_combout $end
$var wire 1 &" iB[0]~input_o $end
$var wire 1 '" ShiftLeft_B|outQ~0_combout $end
$var wire 1 (" ShiftLeft_B|outQ~1_combout $end
$var wire 1 )" iB[2]~input_o $end
$var wire 1 *" ShiftLeft_B|outQ~2_combout $end
$var wire 1 +" ShiftLeft_B|outQ~3_combout $end
$var wire 1 ," ShiftLeft_B|outQ~4_combout $end
$var wire 1 -" iB[5]~input_o $end
$var wire 1 ." ShiftLeft_B|outQ~5_combout $end
$var wire 1 /" ShiftLeft_B|outQ~6_combout $end
$var wire 1 0" ShiftLeft_B|outQ~7_combout $end
$var wire 1 1" iLinshiftright~input_o $end
$var wire 1 2" ShiftRight_A|outQ~7_combout $end
$var wire 1 3" ShiftRight_A|outQ~6_combout $end
$var wire 1 4" ShiftRight_A|outQ~5_combout $end
$var wire 1 5" iA[4]~input_o $end
$var wire 1 6" ShiftRight_A|outQ~4_combout $end
$var wire 1 7" ShiftRight_A|outQ~3_combout $end
$var wire 1 8" ShiftRight_A|outQ~2_combout $end
$var wire 1 9" ShiftRight_A|outQ~1_combout $end
$var wire 1 :" ShiftRight_A|outQ~0_combout $end
$var wire 1 ;" iB[1]~input_o $end
$var wire 1 <" iB[3]~input_o $end
$var wire 1 =" iB[7]~input_o $end
$var wire 1 >" ShiftRight_B|outQ~7_combout $end
$var wire 1 ?" ShiftRight_B|outQ~6_combout $end
$var wire 1 @" ShiftRight_B|outQ~5_combout $end
$var wire 1 A" iB[4]~input_o $end
$var wire 1 B" ShiftRight_B|outQ~4_combout $end
$var wire 1 C" ShiftRight_B|outQ~3_combout $end
$var wire 1 D" ShiftRight_B|outQ~2_combout $end
$var wire 1 E" ShiftRight_B|outQ~1_combout $end
$var wire 1 F" ShiftRight_B|outQ~0_combout $end
$var wire 1 G" iOpCode[0]~input_o $end
$var wire 1 H" Mux7~1_combout $end
$var wire 1 I" iOpCode[2]~input_o $end
$var wire 1 J" iOpCode[3]~input_o $end
$var wire 1 K" Mux7~0_combout $end
$var wire 1 L" Mux7~2_combout $end
$var wire 1 M" Mux6~4_combout $end
$var wire 1 N" Mux6~3_combout $end
$var wire 1 O" Mux6~2_combout $end
$var wire 1 P" Mux6~5_combout $end
$var wire 1 Q" iOpCode[1]~input_o $end
$var wire 1 R" Mux5~1_combout $end
$var wire 1 S" Mux5~4_combout $end
$var wire 1 T" Mux5~5_combout $end
$var wire 1 U" Mux5~2_combout $end
$var wire 1 V" Mux5~3_combout $end
$var wire 1 W" Mux4~2_combout $end
$var wire 1 X" m8BitSUB|FullSubtractor_3|HalfSub_1|oDiff~0_combout $end
$var wire 1 Y" m8BitSUB|FullSubtractor_3|HalfSub_1|oDiff~combout $end
$var wire 1 Z" m8BitADD|Full_Add_3|oCarry~0_combout $end
$var wire 1 [" m8BitADD|Full_Add_2|oCarry~0_combout $end
$var wire 1 \" m8BitADD|Full_Add_4|HalfAdder_1|oSum~combout $end
$var wire 1 ]" Mux4~1_combout $end
$var wire 1 ^" Mux4~3_combout $end
$var wire 1 _" m8BitADD|Full_Add_3|oCarry~1_combout $end
$var wire 1 `" Mux3~0_combout $end
$var wire 1 a" Mux3~1_combout $end
$var wire 1 b" Equal0~0_combout $end
$var wire 1 c" iB[6]~input_o $end
$var wire 1 d" oAccu~1_combout $end
$var wire 1 e" m8BitADD|Full_Add_6|oCarry~8_combout $end
$var wire 1 f" m8BitADDwCarry|Full_Add_6|oCarry~0_combout $end
$var wire 1 g" m8BitADDwCarry|Full_Add_7|oCarry~0_combout $end
$var wire 1 h" m8BitADDwCarry|Full_Add_8|oCarry~0_combout $end
$var wire 1 i" comb_26|oQ~q $end
$var wire 1 j" m8BitADDwCarry|Full_Add_3|oCarry~0_combout $end
$var wire 1 k" m8BitADDwCarry|Full_Add_3|oCarry~1_combout $end
$var wire 1 l" m8BitADDwCarry|Full_Add_4|oCarry~0_combout $end
$var wire 1 m" Mux3~2_combout $end
$var wire 1 n" Mux3~3_combout $end
$var wire 1 o" Mux3~4_combout $end
$var wire 1 p" Mux3~5_combout $end
$var wire 1 q" Mux2~2_combout $end
$var wire 1 r" m8BitSUB|FullSubtractor_5|oBorrow~combout $end
$var wire 1 s" Mux2~3_combout $end
$var wire 1 t" Mux2~4_combout $end
$var wire 1 u" Mux2~5_combout $end
$var wire 1 v" Mux2~6_combout $end
$var wire 1 w" Mux1~4_combout $end
$var wire 1 x" m8BitSUB|FullSubtractor_6|oBorrow~combout $end
$var wire 1 y" Mux1~0_combout $end
$var wire 1 z" Mux2~0_combout $end
$var wire 1 {" m8BitADD|Full_Add_6|oCarry~9_combout $end
$var wire 1 |" Mux1~1_combout $end
$var wire 1 }" Mux1~2_combout $end
$var wire 1 ~" Mux1~3_combout $end
$var wire 1 !# Mux1~5_combout $end
$var wire 1 "# Mux0~4_combout $end
$var wire 1 ## Mux0~3_combout $end
$var wire 1 $# m8BitADD|Full_Add_7|oCarry~0_combout $end
$var wire 1 %# Mux0~0_combout $end
$var wire 1 &# Mux0~1_combout $end
$var wire 1 '# Mux0~2_combout $end
$var wire 1 (# Mux0~5_combout $end
$var wire 1 )# Add0~0_combout $end
$var wire 1 *# LessThan0~1_cout $end
$var wire 1 +# LessThan0~3_cout $end
$var wire 1 ,# LessThan0~5_cout $end
$var wire 1 -# LessThan0~7_cout $end
$var wire 1 .# LessThan0~9_cout $end
$var wire 1 /# LessThan0~11_cout $end
$var wire 1 0# LessThan0~13_cout $end
$var wire 1 1# LessThan0~14_combout $end
$var wire 1 2# Add0~2_combout $end
$var wire 1 3# Decoder0~0_combout $end
$var wire 1 4# Decoder0~0clkctrl_outclk $end
$var wire 1 5# SubPos[0]$latch~combout $end
$var wire 1 6# Add0~1 $end
$var wire 1 7# Add0~3_combout $end
$var wire 1 8# Add0~5_combout $end
$var wire 1 9# SubPos[1]$latch~combout $end
$var wire 1 :# Add0~4 $end
$var wire 1 ;# Add0~6_combout $end
$var wire 1 <# Add0~8_combout $end
$var wire 1 =# SubPos[2]$latch~combout $end
$var wire 1 ># Add0~7 $end
$var wire 1 ?# Add0~9_combout $end
$var wire 1 @# Add0~11_combout $end
$var wire 1 A# SubPos[3]$latch~combout $end
$var wire 1 B# Add0~10 $end
$var wire 1 C# Add0~12_combout $end
$var wire 1 D# Add0~14_combout $end
$var wire 1 E# SubPos[4]$latch~combout $end
$var wire 1 F# Add0~13 $end
$var wire 1 G# Add0~15_combout $end
$var wire 1 H# Add0~17_combout $end
$var wire 1 I# SubPos[5]$latch~combout $end
$var wire 1 J# Add0~16 $end
$var wire 1 K# Add0~18_combout $end
$var wire 1 L# Add0~20_combout $end
$var wire 1 M# SubPos[6]$latch~combout $end
$var wire 1 N# Add0~19 $end
$var wire 1 O# Add0~21_combout $end
$var wire 1 P# Add0~23_combout $end
$var wire 1 Q# SubPos[7]$latch~combout $end
$var wire 1 R# oDiff[0]$latch~combout $end
$var wire 1 S# oDiff[1]$latch~combout $end
$var wire 1 T# oDiff[2]$latch~combout $end
$var wire 1 U# oDiff[3]$latch~combout $end
$var wire 1 V# oDiff[4]$latch~combout $end
$var wire 1 W# oDiff[5]$latch~combout $end
$var wire 1 X# oDiff[6]$latch~combout $end
$var wire 1 Y# oDiff[7]$latch~combout $end
$var wire 1 Z# Mux9~0_combout $end
$var wire 1 [# Mux8~1_combout $end
$var wire 1 \# Mux8~2_combout $end
$var wire 1 ]# oCarryFlag$latch~combout $end
$var wire 1 ^# Equal1~1_combout $end
$var wire 1 _# Equal1~0_combout $end
$var wire 1 `# Equal1~2_combout $end
$var wire 1 a# ShiftRight_A|outQ [7] $end
$var wire 1 b# ShiftRight_A|outQ [6] $end
$var wire 1 c# ShiftRight_A|outQ [5] $end
$var wire 1 d# ShiftRight_A|outQ [4] $end
$var wire 1 e# ShiftRight_A|outQ [3] $end
$var wire 1 f# ShiftRight_A|outQ [2] $end
$var wire 1 g# ShiftRight_A|outQ [1] $end
$var wire 1 h# ShiftRight_A|outQ [0] $end
$var wire 1 i# ShiftLeft_A|outQ [7] $end
$var wire 1 j# ShiftLeft_A|outQ [6] $end
$var wire 1 k# ShiftLeft_A|outQ [5] $end
$var wire 1 l# ShiftLeft_A|outQ [4] $end
$var wire 1 m# ShiftLeft_A|outQ [3] $end
$var wire 1 n# ShiftLeft_A|outQ [2] $end
$var wire 1 o# ShiftLeft_A|outQ [1] $end
$var wire 1 p# ShiftLeft_A|outQ [0] $end
$var wire 1 q# ShiftLeft_B|outQ [7] $end
$var wire 1 r# ShiftLeft_B|outQ [6] $end
$var wire 1 s# ShiftLeft_B|outQ [5] $end
$var wire 1 t# ShiftLeft_B|outQ [4] $end
$var wire 1 u# ShiftLeft_B|outQ [3] $end
$var wire 1 v# ShiftLeft_B|outQ [2] $end
$var wire 1 w# ShiftLeft_B|outQ [1] $end
$var wire 1 x# ShiftLeft_B|outQ [0] $end
$var wire 1 y# ShiftRight_B|outQ [7] $end
$var wire 1 z# ShiftRight_B|outQ [6] $end
$var wire 1 {# ShiftRight_B|outQ [5] $end
$var wire 1 |# ShiftRight_B|outQ [4] $end
$var wire 1 }# ShiftRight_B|outQ [3] $end
$var wire 1 ~# ShiftRight_B|outQ [2] $end
$var wire 1 !$ ShiftRight_B|outQ [1] $end
$var wire 1 "$ ShiftRight_B|outQ [0] $end
$upscope $end
$upscope $end
$enddefinitions $end
#0
$dumpvars
b110110 !
b11011001 "
0#
0$
0%
b0 &
0'
0/
0.
0-
0,
0+
0*
0)
0(
07
06
05
04
03
02
01
00
x?
x>
x=
x<
x;
x:
x9
x8
xG
xF
xE
xD
xC
xB
xA
x@
xH
xP
xO
xN
xM
xL
xK
xJ
xI
xX
xW
xV
xU
xT
xS
xR
xQ
x`
x_
x^
x]
x\
x[
xZ
xY
xh
xg
xf
xe
xd
xc
xb
xa
xp
xo
xn
xm
xl
xk
xj
xi
xq
xr
0s
1t
xu
1v
1w
1x
xy
xz
x{
x|
x}
x~
x!!
x"!
x#!
x$!
x%!
x&!
x'!
x(!
x)!
x*!
x+!
x,!
x-!
x.!
x/!
x0!
x1!
x2!
x3!
x4!
x5!
x6!
x7!
x8!
x9!
x:!
x;!
x<!
x=!
x>!
x?!
x@!
xA!
xB!
xC!
xD!
xE!
xF!
xG!
xH!
xI!
xJ!
xK!
xL!
xM!
xN!
xO!
xP!
xQ!
xR!
xS!
xT!
xU!
0V!
0W!
0X!
0Y!
0Z!
0[!
0\!
0]!
0^!
0_!
0`!
0a!
0b!
0c!
0d!
0e!
xf!
xg!
xh!
xi!
xj!
xk!
xl!
xm!
xn!
xo!
0p!
xq!
0r!
0s!
xt!
0u!
xv!
1w!
xx!
1y!
xz!
0{!
x|!
x}!
1~!
x!"
0""
x#"
0$"
x%"
1&"
x'"
x("
0)"
x*"
x+"
x,"
0-"
x."
x/"
x0"
01"
x2"
x3"
x4"
15"
x6"
x7"
x8"
x9"
x:"
0;"
1<"
1="
x>"
x?"
x@"
1A"
xB"
xC"
xD"
xE"
xF"
0G"
xH"
0I"
0J"
xK"
xL"
xM"
xN"
xO"
xP"
0Q"
xR"
xS"
xT"
xU"
xV"
xW"
xX"
xY"
xZ"
x["
x\"
x]"
x^"
x_"
x`"
xa"
xb"
1c"
xd"
xe"
xf"
xg"
xh"
0i"
xj"
xk"
xl"
xm"
xn"
xo"
xp"
xq"
xr"
xs"
xt"
xu"
xv"
xw"
xx"
xy"
xz"
x{"
x|"
x}"
x~"
x!#
x"#
x##
x$#
x%#
x&#
x'#
x(#
x)#
x*#
x+#
x,#
x-#
x.#
x/#
x0#
x1#
x2#
x3#
x4#
x5#
x6#
x7#
x8#
x9#
x:#
x;#
x<#
x=#
x>#
x?#
x@#
xA#
xB#
xC#
xD#
xE#
xF#
xG#
xH#
xI#
xJ#
xK#
xL#
xM#
xN#
xO#
xP#
xQ#
xR#
xS#
xT#
xU#
xV#
xW#
xX#
xY#
xZ#
x[#
x\#
x]#
x^#
x_#
x`#
0h#
0g#
0f#
0e#
0d#
0c#
0b#
0a#
0p#
0o#
0n#
0m#
0l#
0k#
0j#
0i#
0x#
0w#
0v#
0u#
0t#
0s#
0r#
0q#
0"$
0!$
0~#
0}#
0|#
0{#
0z#
0y#
$end
#367
0v!
0q!
#1213
0b"
#1372
0\#
#1378
03#
#2096
04#
#3056
0,!
0R
#3066
0&!
0X
#3071
05!
0Y
#3077
08!
0f
#3088
0:!
0d
#3092
0@!
0n
#3093
0*!
0T
#3107
0;!
0c
#3308
0D!
0j
#3317
0?!
0o
#3367
01!
0]
#3372
09!
0e
#3375
02!
0\
#3390
03!
0[
#3399
0.!
0`
#3479
0'!
0W
#3489
0)!
0U
#3497
06!
0h
#3511
0+!
0S
#3530
0=!
0a
#3533
0<!
0b
#3543
0-!
0Q
#3579
0(!
0V
#3604
0>!
0p
#3731
0/!
0_
#3732
0E!
0i
#3757
0("
#3763
0"#
#3799
0A!
0m
#3808
0m"
#3825
0E"
#3831
07!
0g
#3840
0Z#
#3843
0%!
#3862
0"!
#3873
04!
0Z
#3951
1##
#3957
0C!
0k
#4021
0w"
#4053
0K"
#4057
0M"
#4094
0@"
#4113
0."
#4146
0z
#4149
0H"
#4173
18"
#4175
0*"
#4179
0y
#4188
0u"
#4202
00!
0^
#4222
0N"
#4223
0["
#4228
1e"
#4273
0U"
#4317
0D"
#4333
0%"
#4335
02"
#4344
14"
#4349
1~"
#4372
0~
#4377
1R"
#4406
0d"
#4413
0r"
#4416
1q"
#4426
03"
#4432
16"
#4435
0*#
#4445
1>"
#4446
0#"
#4448
19"
#4458
1B"
#4468
0]"
#4470
1C"
#4472
1>#
#4473
0j"
#4475
1,#
#4480
1'"
#4483
1F"
#4484
1,"
#4506
0v"
#4507
06#
#4518
1}!
#4542
1)#
#4628
0B!
0l
#4669
1x!
#4673
1z!
1!"
#4689
0n"
#4731
0V"
#4745
0t!
#4746
0L"
#4766
1O"
#4771
0P"
#4777
1+"
#4779
10"
#4789
0k"
#4790
1f"
#4825
00#
#4828
0N#
#4829
01#
#4832
0J#
#4834
0/#
#4841
1t"
#4863
1?#
#4866
1o"
#4881
07"
#4908
1Z"
#4913
0:"
#4943
1B#
#4948
1-#
#4961
0'#
#4995
0_"
#5001
0F#
#5006
0.#
#5010
1|
#5011
1S"
#5021
0}
#5029
1s"
#5042
0|!
#5059
0:#
0+#
#5106
0W"
#5109
1T"
#5110
1z"
1X"
#5112
07#
#5113
1g"
#5117
1?"
#5120
1_#
#5121
1/"
#5124
0l"
#5141
0#!
#5154
0{
#5173
0}"
#5265
0O#
#5279
0(#
#5287
1K#
#5311
1x"
#5317
1p"
#5324
08#
#5326
02#
0<#
0@#
#5327
0D#
0H#
#5398
1C#
#5438
0G#
1h"
#5444
0`"
#5514
1;#
#5542
1{"
#5609
0L#
#5610
0P#
#5694
0^"
#5704
1Y"
#5708
1\"
#5734
0!#
#5806
1y"
#5911
0^#
#6060
1%#
#6132
1|"
#6181
0a"
#6232
1!!
#6373
1$#
#6632
0`#
#6930
1[#
#6940
1&#
#7777
0G!
0F
#7789
0K!
0B
#8039
0F!
0G
#8184
0H!
0E
#8412
1J!
1C
#8592
0M!
0@
#8675
0I!
0D
#8918
0L!
0A
#10075
0o!
0q
#25000
1#
0r
#25497
1p!
#25877
1q!
#50000
0#
1r
#50671
0p!
#51038
0q!
#57000
b10110 !
b10010 !
b10011 !
0r
#57525
1s!
#57671
0y!
#57718
0~!
#61000
b1011001 "
b11001 "
b1001 "
b1101 "
1r
#61380
1z
#61383
1H"
#61415
1y
#61515
1)"
#61612
1["
#61666
1j"
#61681
0="
#61692
0)#
#61708
0A"
#61728
0c"
#61769
16#
#61915
1t!
#61950
1L"
#61969
1k"
#61977
0|
#62066
1:"
#62194
0z!
#62224
17#
#62239
0\"
#62259
0e"
#62292
1l"
#62359
08"
#62366
1{
#62381
1_"
#62409
0{"
#62410
0!"
04"
#62417
1#!
#62428
0s"
#62436
0;#
#62465
1G#
#62543
1/#
#62545
1J#
#62803
1`"
#62840
0f"
#62982
0K#
#63000
0Z"
#63022
0|"
#63083
0_"
#63084
0S"
#63093
1|
#63176
0g"
#63256
0$#
#63378
0!!
#63471
1\"
#63516
0h"
#63526
1a"
#63532
0`"
#63624
0k"
#63853
0&#
#63873
0y"
#63874
0[#
#63959
0l"
#64134
0%#
#64269
0a"
#65067
1!!
#65230
0B"
#65363
1F!
1G
#65404
1*"
#65462
0Y"
#65474
1Z"
#65497
0,#
#65500
0>#
#65518
0,"
#65541
1;#
#65546
1D"
#65582
1S"
0R"
#65654
0>"
#65706
1O#
#65713
1_"
#65773
0##
#65917
0\"
#65926
00"
#65937
0?#
#66078
1k"
#66107
0C#
#66135
1`"
#66179
1.#
#66180
1F#
#66237
0/#
#66238
0J#
#66344
0T"
#66401
1l"
#66419
0o"
#66431
0~"
#66436
0$!
#66438
0#!
#66595
0S"
#66617
0G#
#66718
1n"
#66858
1a"
#66873
0p"
#67100
10#
#67105
1N#
#67224
1#!
#67279
0?"
#67284
0/"
#67484
1^#
#67487
0!!
#67542
0O#
#67555
11#
#68048
18#
#68050
1<#
#69846
0J!
0C
#70000
1'
0r
#70497
1u!
#70877
1v!
#71000
b1 &
1r
#71537
1G"
#74772
1y"
#74897
1%#
#75000
1#
0r
#75021
1o"
#75045
1##
#75047
1~"
#75048
0t"
#75053
0q"
#75058
1m"
#75164
1U"
#75165
1N"
#75313
1W"
#75351
0n"
#75472
1p"
#75497
1p!
#75509
1t"
#75617
1V"
#75676
1P"
#75875
1^"
#75877
1q!
#76066
0^#
#76219
0_#
#77740
1x#
1v#
1u#
1}#
1~#
1"$
#77741
1p#
1o#
1l#
1d#
1g#
1h#
#78567
1J!
1C
#78802
1G!
1F
#78975
1I!
1D
#79202
1H!
1E
#80868
1@!
1n
#80885
1&!
1X
#80910
1:!
1d
#80911
1*!
1T
#81142
11!
1]
#81178
1.!
1`
#81308
1'!
1W
#81322
16!
1h
#81374
1>!
1p
#81575
1A!
1m
#81670
17!
1g
#81965
10!
1^
#100000
0#
1r
#100671
0p!
#101038
0q!
#114000
b10010 !
0r
#114698
0s!
#118844
0z
#118857
1K"
#118877
0y
#119081
0["
#119131
06#
#119157
1)#
#119163
0{
#119171
0j"
#119443
0t!
#119449
0|
#119487
0k"
#119568
07#
#119611
0:"
#119723
1\"
#119727
12#
#119822
0l"
#119853
0_"
#120004
1S"
#120030
1]"
#120236
08#
#120302
0`"
#120439
1T"
#120668
0#!
#120930
1!!
#121039
0a"
#121042
0z"
#121487
1n"
#121667
0t"
#122000
b101101 "
b101111 "
b10101111 "
b10101011 "
1r
#122507
1="
#122535
1;"
#122565
1-"
#122688
0)"
#125000
1#
0r
#125497
1p!
#125877
1q!
#126016
1("
#126097
1E"
#126208
01#
#126209
1>"
#126220
1O#
#126268
0##
#126280
1"#
#126371
1."
#126372
1@"
#126445
1e"
1u"
#126451
1["
#126452
1M"
#126466
10"
#126671
1s"
#126676
1r"
#126705
02#
0<#
#126728
17#
#126747
1k"
#126749
1v"
#126761
1|
#126771
1}
#126828
1+#
#126830
1:#
#126844
1(#
#126863
0*"
#126961
0U"
#126963
0Z"
#126970
1Y"
#126974
1t"
#127005
0D"
#127063
1G#
#127070
1l"
#127078
0\"
#127165
1J#
#127167
1/#
#127223
0N#
#127225
00#
#127393
1f"
#127399
0]"
#127419
0V"
#127434
1\"
#127522
0Y"
#127587
0k"
#127620
1K#
#127660
0O#
#127740
1w#
0v#
1s#
1q#
1y#
1{#
0~#
1!$
#127741
0p#
0h#
1]"
#127893
1#!
#127922
0l"
#128258
0f"
#128768
0#!
#130156
1K!
1B
#130259
1M!
1@
#130807
0&!
0X
#130832
0@!
0n
#130851
15!
1Y
#130872
0H!
0E
#131093
1?!
1o
#131165
13!
1[
#131238
06!
0h
#131494
1E!
1i
#131530
1/!
1_
#131712
1C!
1k
#131942
00!
0^
#142000
b11 &
b10 &
1r
#142517
1Q"
#142711
0G"
#145897
1q"
#146007
1U"
#146016
1R"
#146027
1z
#146033
1|"
#146035
0N"
#146080
0o"
#146091
1w"
1##
#146094
1%!
#146172
1"!
#146199
0y"
#146256
1&#
#146319
0s"
#146332
1{
#146357
0%#
#146456
1o"
#146460
1V"
#146486
0n"
#146500
0m"
#146529
0w"
#146534
0p"
#146584
0P"
#146593
0{
#146597
0U"
#146657
1!#
#146801
0|"
#146803
0&#
#146828
1n"
#146907
1p"
#147010
0S"
#147055
0V"
#147143
0!#
#147689
1_#
#149590
0G!
0F
#150000
0#
0r
#150671
0p!
#151038
0q!
#171000
b1010010 !
b1010000 !
1r
#171517
1""
#171721
0w!
#175000
1#
0r
#175497
1p!
#175604
13"
#175605
1#"
#175877
1q!
#175938
0K#
#176005
10#
#176007
1N#
#176270
1}"
#176273
0x!
#176278
09"
#176415
0x"
#176462
1O#
#176810
1!#
#176893
0O"
#177164
0["
#177220
1P"
#177297
07#
#177462
0|
#177536
0_#
